%YAML 1.1
%TAG !u! tag:unity3d.com,2011:
--- !u!114 &11400000
MonoBehaviour:
  m_ObjectHideFlags: 0
  m_CorrespondingSourceObject: {fileID: 0}
  m_PrefabInstance: {fileID: 0}
  m_PrefabAsset: {fileID: 0}
  m_GameObject: {fileID: 0}
  m_Enabled: 1
  m_EditorHideFlags: 0
  m_Script: {fileID: 11500000, guid: c82e0f8ef7c84ecfbab37794cd2d6126, type: 3}
  m_Name: 42_2
  m_EditorClassIdentifier: 
  serializationData:
    SerializedFormat: 2
    SerializedBytes: 
    ReferencedUnityObjects: []
    SerializedBytesString: 
    Prefab: {fileID: 0}
    PrefabModificationsReferencedUnityObjects: []
    PrefabModifications: []
    SerializationNodes: []
  mesh: {fileID: -7969978266939365281, guid: 16d7a42b5c3e52f49b58017e3e43f643, type: 3}
  scale: 0.164
  correctPosition: {x: 1.4, y: 0.6030673, z: 0}
  correctRotations:
  - {x: 0.020244453, y: -0.99387115, z: 0.025565416, w: 0.10562572}
  - {x: 0.02508922, y: -0.9960274, z: -0.03126723, w: 0.07951308}
  - {x: 0.028266592, y: -0.9929798, z: -0.023927787, w: 0.11233664}
