%YAML 1.1
%TAG !u! tag:unity3d.com,2011:
--- !u!114 &11400000
MonoBehaviour:
  m_ObjectHideFlags: 0
  m_CorrespondingSourceObject: {fileID: 0}
  m_PrefabInstance: {fileID: 0}
  m_PrefabAsset: {fileID: 0}
  m_GameObject: {fileID: 0}
  m_Enabled: 1
  m_EditorHideFlags: 0
  m_Script: {fileID: 11500000, guid: c82e0f8ef7c84ecfbab37794cd2d6126, type: 3}
  m_Name: 42_4
  m_EditorClassIdentifier: 
  serializationData:
    SerializedFormat: 2
    SerializedBytes: 
    ReferencedUnityObjects: []
    SerializedBytesString: 
    Prefab: {fileID: 0}
    PrefabModificationsReferencedUnityObjects: []
    PrefabModifications: []
    SerializationNodes: []
  mesh: {fileID: -2628482395200241503, guid: 67ebdc38c2a6dc84a9d180b1bcf2a32f, type: 3}
  scale: 0.164
  correctPosition: {x: -2, y: 0.34, z: 0}
  correctRotations:
  - {x: -0.01926769, y: 0.99919, z: -0.019177303, w: 0.029674003}
  - {x: 0.026131742, y: -0.99839014, z: -0.050221834, w: -0.0034692632}
  - {x: 0.029071571, y: -0.9983082, z: -0.05033181, w: -0.0014985945}
  - {x: -0.035036616, y: 0.99853605, z: 0.024778094, w: -0.032928366}
