%YAML 1.1
%TAG !u! tag:unity3d.com,2011:
--- !u!114 &11400000
MonoBehaviour:
  m_ObjectHideFlags: 0
  m_CorrespondingSourceObject: {fileID: 0}
  m_PrefabInstance: {fileID: 0}
  m_PrefabAsset: {fileID: 0}
  m_GameObject: {fileID: 0}
  m_Enabled: 1
  m_EditorHideFlags: 0
  m_Script: {fileID: 11500000, guid: 542a00a65c5247d891cc88d9dc181372, type: 3}
  m_Name: Level3-42-Hard
  m_EditorClassIdentifier: 
  meshObjects:
  - {fileID: 11400000, guid: 0564fa31b4e3fe28f94271294f9a0c14, type: 2}
  - {fileID: 11400000, guid: c7e568368f00562779544303da2dec44, type: 2}
  difficultyLevel: 3
  hint: Alma Mater
